"Designator","Footprint","Mid X","Mid Y","Ref X","Ref Y","Pad X","Pad Y","Layer","Rotation","Comment"
""
"C2","CAPC1005X06N","125.476mm","187.833mm","125.476mm","187.833mm","125.936mm","187.833mm","B","180.00","C0603"
"Y1","hc-49s","117.094mm","183.896mm","117.094mm","183.896mm","119.609mm","183.896mm","T","270.00","XTAL"
"VR1","D2PAK_N","101.6mm","182.854mm","101.6mm","181.229mm","104.14mm","188.029mm","T","270.00","KIA7805AF"
"U6","hm-10","101.669mm","174.914mm","108.204mm","186.309mm","108.204mm","184.809mm","B","180.00","U?"
"U5","16-so","154.492mm","161.163mm","154.432mm","161.163mm","151.767mm","156.718mm","B","360.00","74HC165"
"U4","16-so","153.222mm","178.689mm","153.162mm","178.689mm","150.497mm","183.134mm","T","360.00","74HC595"
"U3","MP04A_N","114.427mm","158.75mm","114.427mm","158.75mm","111.527mm","161.05mm","T","360.00","LM1117IMPX-ADJ"
"U2","16-so","167.64mm","178.749mm","167.64mm","178.689mm","172.085mm","176.024mm","B","90.00","74HC595"
"U1","28P3","132.588mm","195.961mm","132.588mm","195.961mm","116.078mm","192.151mm","T","90.00","ATmega328P-PU"
"S5","SODFL960X350-2N","163.576mm","177.038mm","163.576mm","177.038mm","163.576mm","181.163mm","T","270.00","SW-SPST"
"S4","SODFL960X350-2N","170.688mm","177.038mm","170.688mm","177.038mm","170.688mm","181.163mm","T","270.00","SW-SPST"
"S3","Tect_sw","115.443mm","170.434mm","115.443mm","170.434mm","115.443mm","170.434mm","T","180.00","SW-SPDT"
"S2","SODFL960X350-2N","170.815mm","162.941mm","170.815mm","162.941mm","170.815mm","158.816mm","T","90.00","SW-SPST"
"S1","SODFL960X350-2N","163.449mm","162.941mm","163.449mm","162.941mm","163.449mm","158.816mm","T","90.00","SW-SPST"
"R12","2-0402","113.157mm","193.04mm","113.157mm","193.04mm","113.157mm","193.69mm","B","270.00","Res3"
"R11","2-0402","113.157mm","197.993mm","113.157mm","197.993mm","113.157mm","198.643mm","B","270.00","Res3"
"R10","2-0402","167.005mm","170.18mm","167.005mm","170.18mm","167.005mm","169.53mm","T","90.00","Res3"
"R9","2-0402","175.514mm","170.053mm","175.514mm","170.053mm","175.514mm","169.403mm","T","90.00","Res3"
"R8","2-0402","173.609mm","155.194mm","173.609mm","155.194mm","173.609mm","154.544mm","T","90.00","Res3"
"R7","2-0402","166.878mm","155.067mm","166.878mm","155.067mm","166.878mm","154.417mm","T","90.00","Res3"
"R6","J1-0603","168.529mm","191.77mm","168.529mm","191.77mm","168.529mm","191.02mm","B","90.00","Res3"
"R5","J1-0603","163.322mm","192.024mm","163.322mm","192.024mm","163.322mm","191.274mm","B","90.00","Res3"
"R4","2-0402","143.51mm","148.082mm","143.51mm","148.082mm","144.16mm","148.082mm","T","180.00","Res3"
"R3","J1-0603","98.425mm","167.64mm","98.425mm","167.64mm","99.175mm","167.64mm","T","180.00","Res3"
"R2","J1-0603","139.319mm","188.341mm","139.319mm","188.341mm","139.319mm","189.091mm","B","270.00","Res3"
"R1","J1-0603","157.226mm","192.151mm","157.226mm","192.151mm","157.226mm","191.401mm","B","90.00","Res3"
"Q1","TO-92A","115.443mm","147.828mm","115.443mm","147.828mm","115.443mm","149.098mm","T","180.00","2N3904"
"P1","PIN_HEADER_3","135.255mm","143.002mm","137.795mm","143.002mm","137.795mm","143.002mm","T","270.00","CON MOTION"
"J3","5267-02","103.505mm","198.882mm","102.235mm","198.882mm","102.235mm","198.882mm","T","90.00","CON?"
"F1","ledFnd","163.449mm","191.897mm","163.449mm","191.897mm","169.799mm","195.707mm","T","180.00","LF LED FND"
"D5","SODFL160X80-2N","168.783mm","202.311mm","168.783mm","202.311mm","168.783mm","203.011mm","T","270.00","LED3"
"D4","SODFL160X80-2N","164.592mm","202.311mm","164.592mm","202.311mm","164.592mm","203.011mm","T","270.00","LED3"
"D3","SODFL160X80-2N","133.731mm","188.214mm","133.731mm","188.214mm","133.731mm","187.514mm","B","90.00","LED3"
"D2","SODFL160X80-2N","160.274mm","202.311mm","160.274mm","202.311mm","160.274mm","203.011mm","T","270.00","LED3"
"D1","SODFL477X231-2N","96.393mm","151.892mm","96.393mm","151.892mm","96.393mm","153.642mm","T","270.00","Diode"
"CN2","5267-03","165.085mm","147.734mm","169.545mm","150.114mm","162.545mm","147.734mm","T","90.00","molex 5267-03_GAS-SC"
"CN1","5267-02","105.791mm","147.574mm","104.521mm","147.574mm","104.521mm","147.574mm","T","90.00","molex 5267-02_MOTER"
"C5","CAPAE5143X56M","123.952mm","147.447mm","123.952mm","147.447mm","122.077mm","147.447mm","T","0.00","Cap Pol1"
"C4","CAPAE7266X56M","152.019mm","148.336mm","152.019mm","148.336mm","149.394mm","148.336mm","T","0.00","Cap Pol1"
"C3","CAPC1005X06N","98.425mm","162.56mm","98.425mm","162.56mm","97.965mm","162.56mm","T","360.00","C0603"
"C1","CAPC1005X06N","125.349mm","184.15mm","125.349mm","184.15mm","125.809mm","184.15mm","B","180.00","C0603"

